﻿..\..\SharedBinaries\Rnivc\Template\1151001_NDS_5_04_Template.xml
..\..\SharedBinaries\Rnivc\Template\1115104_JRNL_5_04_Template.xml

-cntrename 1151001_NDS_5_04_Template.xml>>NDS_Template.xml
-cntrename 1115104_JRNL_5_04_Template.xml>>JRNL_Template.xml
