﻿..\..\SharedBinaries\OpenXML\DocumentFormat.OpenXml.dll
..\..\SharedBinaries\Northwoods.GoWPF\Northwoods.GoWPF.dll
..\..\SharedBinaries\Telerik\2016.3.1024.40\Telerik.Windows.Controls.dll
..\..\SharedBinaries\Telerik\2016.3.1024.40\Telerik.Windows.Controls.Input.dll
..\..\SharedBinaries\Telerik\2016.3.1024.40\Telerik.Windows.Controls.Navigation.dll
..\..\SharedBinaries\Telerik\2016.3.1024.40\Telerik.Windows.Data.dll
..\..\SharedBinaries\Telerik\2016.3.1024.40\Telerik.Windows.Controls.Data.dll
..\..\SharedBinaries\Telerik\2016.3.1024.40\Telerik.Windows.Controls.Chart.dll
..\..\SharedBinaries\Telerik\2016.3.1024.40\Telerik.Windows.Controls.GridView.dll
..\..\SharedBinaries\Telerik\2016.3.1024.40\Telerik.Windows.Controls.RibbonView.dll
..\..\SharedBinaries\Expression\System.Windows.Interactivity.dll
..\..\SharedBinaries\EPPlus\EPPlus.dll
..\..\SharedBinaries\Autofac\Autofac.dll

..\Bin\FLS.CommonComponents.Lib.dll
..\Bin\FLS.CommonComponents.App.dll
..\Bin\FLS.GoWPFApp.dll
..\Bin\FLS.CommonComponents.App.Wpf.dll