﻿..\Bin\Luxoft.NDS2.Server.TaskScheduler.dll
..\Bin\Luxoft.NDS2.Server.TaskScheduler.pdb
..\Bin\Quartz.dll
..\Bin\Quartz.pdb
..\Bin\Quartz.xml
..\Bin\Luxoft.NDS2.Server.Common.dll
..\Bin\Luxoft.NDS2.Server.DAL.dll
..\Bin\FLS.NDS2.Common.Lib.dll
..\Bin\FLS.NDS2.Common.Lib.dll
..\Bin\Luxoft.NDS2.Common.Contracts.dll
..\Bin\Luxoft.NDS2.Common.Models.dll
..\Bin\Luxoft.NDS2.Common.Excel.dll
..\Bin\Common.Logging.Core.dll
..\Bin\Common.Logging.dll
..\Bin\DocumentFormat.OpenXml.dll
..\Bin\Luxoft.NDS2.Server.Services.DeclarationAssigment.*
